R for eDNA
…
## See spec(...) for full column specifications.

d

## # A tibble: 5,655 x 28
##           `time (UTC)` `latitude (degrees_north)`
##                 <dttm>                      <dbl>
##  1 2015-06-07 04:41:17                    32.7097
##  2 2015-06-07 04:41:17                    32.7097
##  3 2015-06-07 04:41:17                    32.7097
##  4 2015-06-07 04:41:17                    32.7097
##  5 2015-06-07 04:41:17                    32.7097
##  6 2015-06-07 04:41:17                    32.7097
##  7 2015-06-07 04:41:17                    32.7097
##  8 2015-06-07 04:41:17                    32.7097
##  9 2015-06-07 04:41:17                    32.7097
## 10 2015-06-07 04:41:17                    32.7097
## # ... with 5,645 more rows, and 26 more variables: `longitude
## #   (degrees_east)` <dbl>, cruise <int>, haul_no <int>, vessel <chr>,
## #   station <int>, catch <int>, species_code <dbl>, common_name <chr>,
## #   sci_name <chr>, species_group <chr>, maturity <chr>,
## #   species_notes <chr>, aphiaid <int>, match_type <chr>, lsid <chr>,
## #   `station_latitude (degrees_north)` <dbl>, `station_longitude
## #   (degrees_east)` <dbl>, ctd_index <int>, `station_bottom_depth
## #   (meters)` <int>, area <chr>, strata <chr>, `tdr_depth (meters)` <int>,
## #   depth_strata <int>, `bottom_depth (meters)` <int>,
…
